F,lesk_relatedness,A,lesk_relatedness.1,S,lesk_relatedness.2,Nouns_1,lesk_relatedness.3,Nouns_2,lesk_relatedness.4,Verbs,lesk_relatedness.5
fern,,apple,,sample,,broccoli,,deer,,,
fun,0.5483106419683509,all,0.34041192541561516,star,0.0235062667656538,cauliflower,0.10306602055330444,fox,0.01693078208648185,,
fix,0.1888567773125977,anal,0.38653128260654457,stall,0.4261841628556717,string_bean,-0.12196668649481039,dog,-0.1363787023411435,,
fundamental,0.03922330572773831,ankle,0.4024252677944507,sore,0.4665146597358071,apple,-0.05505396080097555,cat,-0.007908481546774237,,
fair,0.15463769702638896,ass,0.2797745750759378,sour,0.2491774932432242,orange,0.059936433916254334,hippopotamus,0.040206683379159,,
fan,0.6801763699134233,arm,0.39434333734525295,sill,0.07865745559450751,banana,-0.02175439442059651,opossum,0.5454891489004356,,
fall,0.37565156961118396,ample,0.17349733251563218,silk,0.573355507176992,cherry,0.003224615821140972,squirrel,-0.19982707055808488,,
fin,0.2843966872723562,,,scatter,-0.015421194343274528,peach,-0.1592857316818992,bird,-0.07960641084380972,,
flipper,0.047607336063738,,,sphere,0.09856156242136926,nectarine,-0.16521343519045778,camel,-0.04425079267826664,,
fulfillment,0.23259643629494928,,,shout,-0.07320597222821536,cabbage,-0.19476681140622895,octopus,-0.10908469454842525,,
for,0.239368354861879,,,stand,0.15023755476300635,kale,0.17039506945853156,rabbit,0.2966535876965999,,
foul,0.5287245132756675,,,stamp,0.6088951357324506,pear,0.44238451922950617,elephant,-0.10092527920142166,,
fame,0.27322833165361343,,,snore,0.1644315633626964,lettuce,0.05649186194256396,giraffe,0.06762774946970533,,
funnel,0.16112562344396575,,,,,cucumber,-0.038071586626193345,bear,0.004306203205701115,,
,,,,,,tangerine,0.04088759419861268,tiger,-0.011786387226290133,,
,,,,,,banana,0.1394549965040171,panda_bear,0.08404186948810344,,
,,,,,,raspberry,-0.040930905060934566,snake,-0.09992395490032958,,
,,,,,,blueberry,0.6017469684356203,monkey,0.01972550171099253,,
,,,,,,blackberry,0.7212675646720483,ape,-0.11917812419862424,,
,,,,,,strawberry,0.3370651831012391,rat,0.21435009287935283,,
,,,,,,lima_bean,0.04677814091815464,mouse,0.09984891965092078,,
,,,,,,corn,0.0668403031237888,,,,
