F,lesk_relatedness,A,lesk_relatedness.1,S,lesk_relatedness.2,Nouns_1,lesk_relatedness.3,Nouns_2,lesk_relatedness.4,Verbs,lesk_relatedness.5
fan,,apple,,sock,,kiwi,,cat,,run,
fanciful,0.5910580914734326,adapt,0.32978895408864867,softly,0.22370247443744024,orange,-0.06350709062561834,dog,-0.007908481546774237,walk,0.006640681907563642
fabulous,0.3764336895861658,always,-0.03177572813658297,simmer,-0.04713836692091955,apple,0.059936433916254334,turtle,-0.01395801416996994,sit,0.01650040749036755
fairy,0.16700939722689964,all,0.6098050838978274,sail,0.26081199663892346,strawberry,-0.02555033564226731,sea_turtle,0.8632710371521604,stand,0.17151952254152775
fat,0.3442452246579572,altogether,0.3205126342767911,salutation,0.12887338880664032,blueberry,0.5141393665784476,shark,-0.07108238161791214,cartwheel,0.019126141613234393
font,0.5921549735620198,alas,-0.1632690152542799,salute,0.3508584681441545,blackberry,0.7212675646720483,angelfish,0.02674974043937376,bike,-0.11215907434050379
finger,0.24302927102856106,acclaim,0.035812776232673656,salami,0.4330872911857186,raspberry,0.7022001243135917,horse,0.12020169970297315,swim,-0.06786251758262052
forward,0.18865028429321185,accomplishment,0.17589867543884855,sack,0.008986703593584545,cantaloupe,-0.24986492475235253,cow,0.047024791182668495,scuba,0.1344180882867197
fear,0.1425113691321945,abyss,0.08016302723377229,slap,0.54541475192307,honeydew_melon,0.06050075971021997,poodle,-0.07853614782397325,snorkel,-0.025399119689321462
flub,0.12312282668327038,astronomical,0.012633972617581552,sing,0.11373609653795945,asparagus,-0.0976504194485694,bullmastiff,0.049859460941464304,dive,0.06517404709383667
father,0.02886614288076485,amaze,0.09907829439411216,song,0.37596113145468346,artichoke,-0.12900536975051224,yorkie,-0.16477678109144017,juggle,0.17099873838727214
forest,0.2541627530953669,amazing,0.7696550898302355,sell,0.3225628710196175,onion,0.13443430882326424,caterpillar,0.022674435192858465,bicycle,0.2262408332670622
forgive,0.028460766367296605,amazon,0.22130419866940354,salesman,0.4495564343950071,bok_choy,-0.08723610208303864,snake,-0.1126105683661865,draw,0.11856308413568749
fancy,0.015865290542808486,asshole,0.22885285970487904,soldier,0.1761086807205688,lettuce,-0.19935117227391316,snail,0.39370687249490194,write,-0.06085055378685189
fork,-0.015376913023856516,ass,0.5925785581964372,simper,0.0975407076418096,cabbage,-0.12296132234427644,millipede,0.09635166120374548,read,0.2378161302140206
face,0.16177185719510404,,,skate,-0.05893031155812162,carrot,0.12818453451788767,centipede,0.4026593268139492,talk,0.15025629609296706
forklift,0.3279881618198213,,,save,0.09974051962230483,pea,0.05753535300097718,cockroach,-0.10894334147896376,eat,0.10041273327087465
festival,0.23688412446397913,,,,,broccoli,0.024261365896733663,mice,-0.06374674464622083,masturbate,-0.10395350024200381
fall,0.1730785963801825,,,,,cauliflower,0.10306602055330444,rat,0.14086621132034954,hum,-0.10205195276680219
,,,,,,celery,0.24893699703149577,spider,0.1023838553454028,whistle,-0.16869516485632696
,,,,,,starfruit,-0.06392638468307696,tiger_shark,0.3470140603894895,play,-0.09686962480657091
,,,,,,dragon_fruit,0.6492853538309689,hammerhead_shark,0.28770066051641274,kick,0.01855251931365442
,,,,,,pomegranate,0.21556047106881832,great_white_shark,0.29369054999669164,fart,0.04418961335085717
,,,,,,kale,-0.23171012127836213,,,swallow,0.3114388411711072
