F,lesk_relatedness,A,lesk_relatedness.1,S,lesk_relatedness.2,Nouns_1,lesk_relatedness.3,Nouns_2,lesk_relatedness.4,Verbs,lesk_relatedness.5
fabulous,,apple,,simple,,apple,,dog,,sleep,
futile,0.46405104332484776,astute,0.0631401192158076,says,0.22276488171579675,banana,-0.2234222045212809,cat,-0.007908481546774237,run,0.01727673453660332
fortitude,0.42243461302050794,assiduous,0.22881863659739643,sorted,0.16639796502818413,blueberry,-0.11067351415040874,cow,0.2447114740278552,walk,0.006640681907563642
fantastic,0.2564838888239214,aplomb,-0.049168560820299176,sultry,0.1632944924691368,cantaloupe,-0.02303003807146721,chicken,0.2393565867199348,rush,0.11531157600446867
formulate,-0.0004034348704168327,adventure,0.16273194384584666,simulate,0.294696560499979,watermelon,0.18059539591887136,pig,0.41564858224523726,comb,-0.047548725965510845
fumble,0.06312644212695544,affect,-0.022830851293160263,sumptuous,0.16910005186890378,peach,-0.15457873011026557,giraffe,-0.005762393216317463,dress,0.021066401690131707
farmer,0.20514519045201474,affable,0.40322636167713477,sanguine,0.2188339024333588,nectarine,-0.16521343519045778,elephant,0.06762774946970533,study,-0.270836967228071
firm,0.24801580981184893,anomaly,-0.0479502913798627,sensuous,0.24654446207475297,plum,-0.231819796373305,lion,0.0054904708821814155,work,-0.007422241619005564
fluorescent,-0.10424364253061802,abhorrent,0.08975668731599587,sexy,0.04434606722322625,broccoli,0.03294808936240198,tiger,0.06332456949037069,drive,-0.1398985252539727
feather,-0.03134948573244946,absolute,0.29817516405864436,separate,0.3541674130839768,asparagus,0.1681702463056478,zebra,0.0424800913063175,share,-0.1157933510508599
fat,0.19562154563507111,anonymous,0.031198250891977735,,,spinach,0.3154881060191702,hippo,-0.095714098523719,eat,-0.007497422461781507
ferment,0.19067720864238222,axiom,0.16456545848592874,,,cauliflower,-0.09783812561429195,camel,-0.015828881945088847,drink,0.11495129266003168
figure,0.009512314795763907,aforementioned,-0.11869454072268679,,,carrot,0.14033754314383418,buffalo,0.024132237061370326,speak,0.18215164606142012
fortress,0.19126215027565915,accent,0.2024693638482324,,,turnip,0.22066732108355608,llama,0.055918498893122094,fornicate,-0.043249035367961
fickle,0.05958001718309097,amenable,0.102667562103675,,,pear,-0.15963283605853573,impala,0.1829592068380562,yell,-0.0613687902730868
friendly,-0.028444388628874533,,,,,grape,0.3273006468230967,armadillo,0.1206231957135821,scream,0.03312480010341217
,,,,,,orange,0.03451376170734437,rat,-0.0696765565352332,fight,-0.009432701002352675
,,,,,,parsley,-0.036571404750201555,raccoon,0.3246090694983524,protest,-0.05840571217479473
,,,,,,strawberry,0.3719205477017444,gerbil,-0.026507605521131003,demonstrate,0.24633731806693154
,,,,,,blackberry,0.3370651831012391,goat,0.06493559888917762,rally,-0.10494500483347503
,,,,,,raspberry,0.7022001243135917,,,,
