F,lesk_relatedness,A,lesk_relatedness.1,S,lesk_relatedness.2,Nouns_1,lesk_relatedness.3,Nouns_2,lesk_relatedness.4,Verbs,lesk_relatedness.5
fan,,able,,same,,apple,,bear,,sit,
fence,0.4362208879482056,acorn,0.35174545773217286,scum,0.17263451318753545,apricot,0.3487749589422901,horse,-0.012618871065474583,stand,0.17151952254152775
foil,0.35508428531146574,adorn,0.5169658501262935,sequel,-0.026607698035581724,peach,-0.01907564827876075,dog,-0.10366423307938537,walk,-0.058169782889079084
fancy,0.1404905584067266,affront,-0.03622677619173904,scent,0.04047986022973004,blueberry,-0.020762480557278265,cat,-0.007908481546774237,sleep,0.13609376119615904
fish,0.21676531673913918,aghast,0.022079051175023352,smile,0.08804265522161772,strawberry,0.5141393665784476,rabbit,0.011699136060709086,slam,0.60856713469625
fun,0.011257014978205812,ahead,0.11959475816872148,snug,0.21579159380917606,cantaloupe,-0.10638499726352182,snake,0.04477924680390207,hit,-0.1500708639367552
fuzzy,0.5164731432866271,allergies,0.09565942339322893,spring,0.21113903979056486,watermelon,0.18059539591887136,elephant,0.04261461248561938,push,0.14652318498004727
fumigate,0.12052997176237763,among,0.000462979529997424,swing,0.4972949229961758,fig,-0.18458984648699028,giraffe,0.06762774946970533,pull,0.4266668838261424
family,0.06808745410162517,announcement,0.04906337697698371,sue,0.22439843810217314,pear,-0.111316810444895,lion,0.25490029510367523,write,0.039340885338995185
feminine,0.474832860394887,appointment,0.581474829955086,starvation,-0.15067123521853795,banana,-0.028385722339339694,tiger,0.06332456949037069,sing,-0.02123151536542848
fling,0.09681438806905567,at,0.13908060046093143,station,0.6922074965517078,kiwi,-0.04977275728548037,leopard,0.0708710060212711,dial,-0.09025620785120726
frosty,0.34093374100710344,atone,0.222662839218039,sour,-0.010380823962710227,lemon,-0.17438540813515754,cheetah,-0.0016797077487698496,watch,-0.08195522106467328
fugues,0.059385252809179716,arouse,-0.05239483297923647,spread,0.06721958475140657,lime,0.3973630209131085,aardvark,-0.07159888022458447,turn,-0.05476886794415483
feeling,0.1459283686381204,away,0.07378332103791256,saloon,0.11187494341582736,prune,-0.1817851767600365,cougar,-0.16083317672702085,compute,0.02482731163426188
finding,0.4112510901970162,aging,0.11143382135385166,smog,0.04381930576796809,plum,0.308336015233307,zebra,0.09981587706109495,think,0.07169386193540742
,,affiliation,-0.057631542906260796,small,0.4955675587271665,honeydew_melon,0.16812373167252895,buffalo,-0.20989572093590314,analyze,-0.06946027248461373
,,adoration,0.4012129836626306,,,melon,0.5142872609821646,rhino,0.16403022233361744,swivel,0.03819354299397484
,,accuracy,0.33830948649960463,,,,,hamster,0.08559857935284304,laugh,0.22730651505216526
,,academy,0.21382597380947396,,,,,mouse,-0.207478131416364,cry,-0.09079986266434469
,,,,,,,,rat,0.09984891965092078,rub,0.0646562227857807
,,,,,,,,snail,-0.03839997996788112,,
,,,,,,,,fish,-0.0006289243827822021,,
