F,lesk relatedness,A,lesk relatedness.1,S,lesk relatedness.2,Nouns 1,lesk relatedness.3,Nouns 2,lesk relatedness.4,Verbs,lesk relatedness.5
fire_truck,,angle,,single,,orange,,dog,,run,
flame,-0.03046037130381058,amble,0.6688099422075473,same,0.3342092737714011,banana,-0.02175439442059651,cat,-0.007908481546774237,jump,0.06870681104329893
fission,0.013247744131011875,amber,0.5570232497075182,soldier,0.15595752112082528,tomato,0.25314630084587797,lion,-0.03595412037571203,play,-0.0062307494307594115
fork,-0.07711110987956601,ask,0.28322851887446393,string,0.14119350171592399,celery,0.004054474869499331,bear,-0.07290378844952025,hit,0.006989225640944752
ferris_wheel,-0.016952405154915886,assimilate,0.23210358631734618,stratosphere,0.4347879757168619,lettuce,0.13746713670629998,tiger,-0.011786387226290133,walk,0.06190030356004631
fat,0.268964994764935,astronomy,0.16940092067365545,symphony,0.08471624449221854,cucumber,-0.038071586626193345,elephant,-0.18293731839531938,stroll,-0.1348655490195862
furious,0.12490902994784736,atrophy,0.313916814919321,syntax,0.0697625126109439,mango,0.183911305117996,rhinoceros,0.09747675047518312,toss,-0.08924313532090396
finagle,-0.05524867771572941,ataxia,0.26834230158515576,sum,-0.0989516130515568,pineapple,0.14469767660519992,monkey,-0.03477012163288944,throw,-0.16431231056258974
finger,0.500127535527762,arrogance,-0.009764777783115531,somebody,0.40029109346527975,melon,0.1990856107522633,ape,-0.11917812419862424,swim,0.1428382473071628
fast,0.236262696872807,accumulate,0.15711309994589834,star,0.07669853808348893,chive,-0.18277658536700722,chimpanzee,0.03895123943473724,act,-0.12099392347730056
family,0.29534007106295224,addition,0.07233671663118857,,,lima_bean,0.0691368324023946,chameleon,-0.0668871149876163,work,0.12468202038130502
fortuitous,-0.08536651994365842,axiom,-0.03255738783849838,,,peas,0.13294607356102747,fish,-0.04426734511698617,bug,0.04324552438314517
,,,,,,carrot,-0.002328698087513452,otter,-0.02311219389647219,shop,0.028626768193307242
,,,,,,squash,-0.0973469059662106,beaver,0.01917534703872224,,
,,,,,,tangerine,-0.1173816192103431,marsupial,0.21694942032688883,,
,,,,,,pear,-0.0070537158164641,koala,0.07708016665824148,,
,,,,,,apple,0.18787098656455162,kangaroo,0.279655568734677,,
,,,,,,kumquat,0.15823140756145937,,,,
