F,lesk_relatedness,A,lesk_relatedness.1,S,lesk_relatedness.2,Nouns_1,lesk_relatedness.3,Nouns_2,lesk_relatedness.4,Verbs,lesk_relatedness.5
fudge,,apple,,soup,,cabbage,,bear,,walk,
fantasy,0.3479024791712535,ant,0.17557128745067221,serendipity,-0.029639179125982157,carrot,0.12818453451788767,fox,0.004852420608237297,talk,0.7007677768402113
frankincense,0.2105309647992598,aunt,1.0000000000000002,symmetrical,0.2779705649025448,brussels_sprout,0.2732924205448717,coyote,-0.061916396871881815,dance,0.06563138201124268
further,-0.1504432414419532,artifact,0.2579857517719412,solar,0.01774274088744856,bean_sprout,0.538516140651946,dog,-0.1654786686655445,hop,-0.03606785737395352
finish,-0.12328783897837649,anonymous,-0.014523585701915361,solarium,0.41766784017928044,tomato,-0.10934983719128676,cat,-0.007908481546774237,run,0.1490791150021166
frankly,0.008463158488829491,airhead,-0.02630556144819733,summation,0.04356432097401344,turnip,0.31013624235837844,turtle,0.0033796664353808047,play,-0.0656333364963397
fantastic,0.09547139451021945,apprentice,0.31288381890810507,sink,0.05992549760362416,rutabaga,0.049027863621044644,fish,0.04837096414262582,appear,-0.1976074698672723
fun,0.09924420319358455,apex,-0.1937796459826249,sad,0.22954326106419012,turnip,0.049027863621044644,polar_bear,-0.10287958876106257,disappear,0.6447653214309466
future,0.12236993787328874,alongside,0.058094641228350764,soap,0.06763698742161274,bean,-0.09807997613102447,turkey,0.06782601875140523,follow,0.01363847978610619
futile,0.5435340876912051,algorithm,0.09165868402613328,sedentary,-0.007245314187636885,cauliflower,-0.10729453286256548,robin,-0.06968029785093237,chase,-0.20560413960513668
feminine,0.06416957687251647,aluminum,0.21443099582654426,season,0.22999861472564204,broccoli,0.10306602055330444,beaver,-0.044667994710489295,eat,0.033763382086953876
freelance,-0.14427041363948073,alimony,0.4530261286630451,sunshine,0.20289760722121922,corn,-0.021790833284955496,hedgehog,-0.02557932521412175,sleep,0.35312188063685673
freedom,0.47072022078160514,archives,0.04922345269477513,stem,0.08080768785346294,squash,-0.13475329409449743,gerbil,-0.14707273395919315,bathe,-0.11616107243156988
far,0.06948312517621792,antecedent,-0.2848699588150194,stupid,0.1606673733840214,pepper,-0.08614054336256541,rabbit,0.28843627717949816,urinate,-0.14721884157467183
finance,0.2684268421489584,apathy,0.05278219851612484,sensory,-0.030812976645886166,radish,-0.18309706080688307,lion,-0.12620508808238162,poop,-0.0035477262632483317
,,analogous,-0.12864523128930364,seismic,0.13745012387020847,green_onion,0.00068028667410873,tiger,0.06332456949037069,stomp,0.1579236072754719
,,anhydrous,0.1707668941229853,,,orange,0.28546970718017173,elephant,-0.18293731839531938,jump,0.3541638098155824
,,,,,,banana,-0.02175439442059651,hippo,0.02188896396817414,hop,0.14256149742286534
,,,,,,mango,0.2231993135912479,horse,0.10601392243457602,crawl,-0.17145590634717342
,,,,,,papaya,-0.1685615790099467,cow,0.047024791182668495,squiggle,0.1422641125151475
,,,,,,,,pig,0.1638748379731694,stretch,0.1296252284079484
,,,,,,,,chicken,0.41564858224523726,swim,0.18532173659780582
,,,,,,,,rooster,-0.17247488053114576,shoot,0.11288925824398699
,,,,,,,,lamb,0.021859360221136773,cascade,-0.2392023738092154
,,,,,,,,,,drip,-0.16428552504739052
,,,,,,,,,,render,0.13061260781223655
