F,lesk_relatedness,A,lesk_relatedness.1,S,lesk_relatedness.2,Nouns_1,lesk_relatedness.3,Nouns_2,lesk_relatedness.4,Verbs,lesk_relatedness.5
fact,,actor,,sorry,,avocado,,dog,,fight,
fun,0.38577033401449295,action,0.463962042711424,smug,0.12136953128312174,corn,0.05033257619908361,cat,-0.007908481546774237,punch,0.07527729067476374
flummoxed,0.06155223617992037,acorn,0.22263373476040085,sand,0.1922714215839041,tomato,0.09805471290381176,horse,0.12082309419871112,run,-0.0941530633098296
fan,-0.055121414219477236,aggregate,0.05490795161384516,simple,0.2274909546578886,broccoli,-0.1545326006511411,skunk,-0.05987876814358625,swim,0.16357265284565567
funeral,0.12434601493832032,aunt,0.15997701702241218,soup,0.07280072976342172,green_bean,0.0926682106356314,snake,0.19211757291674333,dive,-0.0530539718761013
floor,0.10733945455848205,aggrieved,0.01757472622665688,sister,-0.1116908512088561,zucchini,0.2742338046489653,lion,-0.03974405479836129,swing,-0.08668153875485533
final,0.06565549477881547,ambulance,-0.048375156778466245,sun,0.013895613701476904,grape,-0.16585933359929245,tiger,0.06332456949037069,jump,0.06997172386506285
flood,0.2645311348505807,amulet,0.8126974029520743,splinter,0.07067072521714692,apple,0.09375997542056282,bear,-0.011786387226290133,slide,0.028023934859038733
figure,0.13136071110338995,artistic,-0.036142390453557785,slither,0.19433365293796337,orange,0.059936433916254334,elephant,-0.028295593499129718,kick,0.008628627182936683
funny,0.08594771277623685,asinine,-0.07558690620375538,smother,0.6134610856669498,grapefruit,0.11482629497850501,bee,-0.10722489157332526,rub,0.13061077191864373
fictitious,0.20440400590533878,agriculture,-0.12123019977734809,skittish,0.048770286691541716,lettuce,-0.05711666166513348,bird,0.16109830085437582,hit,0.2549310413599805
farmer,-0.02209735360884723,arm,-0.026828722146231353,skunk,0.13249063195595787,celery,0.13746713670629998,robin,-0.15286508457179243,write,0.44504598680483093
female,0.11673861221834048,,,slide,0.08388597911815128,kumquat,-0.050603436989888666,insect,-0.12385725416682135,draw,-0.06085055378685189
foment,0.28800064134331843,,,sap,0.26793955487883153,asparagus,-0.0922123574685569,giraffe,-0.04862029903012105,drive,0.4107216308127726
,,,,siren,0.25931381574141005,carrot,0.2726260375401716,raccoon,-0.01299722397686196,fall,-0.12556069694503938
,,,,,,papaya,-0.00767796840524664,possum,0.03091829381414709,,
,,,,,,mango,-0.1685615790099467,rat,0.053663849890472834,,
,,,,,,,,aardvark,0.15568937076201242,,
,,,,,,,,kangaroo,-0.2787222206812062,,
,,,,,,,,dingo,0.35234691560515075,,
